{
  "self": "https://your-domain.atlassian.net/rest/api/3/statuses/search?startAt=0&maxResults=2",
  "nextPage": "https://your-domain.atlassian.net/rest/api/3/statuses/search?startAt=2&maxResults=2",
  "maxResults": 2,
  "startAt": 0,
  "total": 5,
  "isLast": true,
  "values": [
    {
      "id": "1000",
      "name": "Finished",
      "statusCategory": "DONE",
      "scope": {
        "type": "PROJECT",
        "project": {
          "id": "10000"
        }
      },
      "description": "The issue is resolved",
      "usages": [
        {
          "project": {
            "id": "10000"
          },
          "issueTypes": [
            "10002"
          ]
        }
      ]
    },
    {
      "id": "1001",
      "name": "TODO",
      "statusCategory": "TODO",
      "scope": {
        "type": "PROJECT",
        "project": {
          "id": "10000"
        }
      },
      "description": "The issue is resolved",
      "usages": [
        {
          "project": {
            "id": "10000"
          },
          "issueTypes": [
            "10003", "10004"
          ]
        }
      ]
    }
  ]
}
